CS 233/Lab11/pm.vcd
$date
	Sun Nov 12 13:18:16 2017
$end
$version
	Icarus Verilog
$end
$timescale
	1s
$end
$scope module test $end
$var wire 32 ! PC [31:0] $end
$var reg 1 " clk $end
$var reg 1 # done $end
$var integer 32 $ i [31:0] $end
$var reg 1 % reset $end
$scope module pm $end
$var wire 3 & ALUOp [2:0] $end
$var wire 1 ' ALUSrc $end
$var wire 1 ( BEQ $end
$var wire 32 ) B_data [31:0] $end
$var wire 1 * MemRead $end
$var wire 1 + MemToReg $end
$var wire 1 , MemWrite $end
$var wire 32 - PC [31:0] $end
$var wire 1 . PCSrc $end
$var wire 30 / PC_plus4 [31:2] $end
$var wire 30 0 PC_target [31:2] $end
$var wire 1 1 RegDst $end
$var wire 1 2 RegWrite $end
$var wire 32 3 alu_out_data [31:0] $end
$var wire 1 4 clk $end
$var wire 1 5 flush $end
$var wire 1 6 forwardA $end
$var wire 1 7 forwardB $end
$var wire 6 8 funct [5:0] $end
$var wire 32 9 imm [31:0] $end
$var wire 32 : inst [31:0] $end
$var wire 32 ; load_data [31:0] $end
$var wire 30 < next_PC [31:2] $end
$var wire 1 = not_stall $end
$var wire 1 > old_MemRead $end
$var wire 1 ? old_MemToReg $end
$var wire 1 @ old_MemWrite $end
$var wire 30 A old_PC_plus4 [31:2] $end
$var wire 1 B old_RegWrite $end
$var wire 32 C old_alu_out_data [31:0] $end
$var wire 32 D old_inst [31:0] $end
$var wire 32 E old_old_rd2_data [31:0] $end
$var wire 32 F old_rd1_data [31:0] $end
$var wire 32 G old_rd2_data [31:0] $end
$var wire 5 H old_wr_regnum [4:0] $end
$var wire 6 I opcode [5:0] $end
$var wire 5 J rd [4:0] $end
$var wire 32 K rd1_data [31:0] $end
$var wire 32 L rd2_data [31:0] $end
$var wire 1 M reset $end
$var wire 5 N rs [4:0] $end
$var wire 5 O rt [4:0] $end
$var wire 1 P stall $end
$var wire 32 Q wr_data [31:0] $end
$var wire 5 R wr_regnum [4:0] $end
$var wire 1 S zero $end
$scope module PC_reg $end
$var wire 1 4 clk $end
$var wire 30 T d [29:0] $end
$var wire 1 = enable $end
$var wire 1 M reset $end
$var reg 30 U q [29:0] $end
$upscope $end
$scope module next_PC_adder $end
$var wire 30 V in1 [29:0] $end
$var wire 30 W in2 [29:0] $end
$var wire 30 X out [29:0] $end
$upscope $end
$scope module target_PC_adder $end
$var wire 30 Y in1 [29:0] $end
$var wire 30 Z in2 [29:0] $end
$var wire 30 [ out [29:0] $end
$upscope $end
$scope module branch_mux $end
$var wire 30 \ A [29:0] $end
$var wire 30 ] B [29:0] $end
$var wire 30 ^ out [29:0] $end
$var wire 1 . sel $end
$var wire 30 _ temp1 [29:0] $end
$var wire 30 ` temp2 [29:0] $end
$upscope $end
$scope module imem $end
$var wire 30 a addr [29:0] $end
$var wire 32 b data [31:0] $end
$var reg 32 c i [31:0] $end
$upscope $end
$scope module decode $end
$var wire 3 d ALUOp [2:0] $end
$var wire 1 ' ALUSrc $end
$var wire 1 ( BEQ $end
$var wire 1 > MemRead $end
$var wire 1 ? MemToReg $end
$var wire 1 @ MemWrite $end
$var wire 1 1 RegDst $end
$var wire 1 B RegWrite $end
$var wire 6 e funct [5:0] $end
$var wire 1 f nop $end
$var wire 1 g op0 $end
$var wire 6 h opcode [5:0] $end
$upscope $end
$scope module rf $end
$var wire 1 4 clock $end
$var wire 32 i internal_rdData [31:0] $end
$var wire 32 j rdData [31:0] $end
$var wire 5 k rdNum [4:0] $end
$var wire 1 2 rdWriteEnable $end
$var wire 1 M reset $end
$var wire 32 l rsData [31:0] $end
$var wire 5 m rsNum [4:0] $end
$var wire 32 n rtData [31:0] $end
$var wire 5 o rtNum [4:0] $end
$var integer 32 p i [31:0] $end
$upscope $end
$scope module imm_mux $end
$var wire 32 q A [31:0] $end
$var wire 32 r B [31:0] $end
$var wire 32 s out [31:0] $end
$var wire 1 ' sel $end
$var wire 32 t temp1 [31:0] $end
$var wire 32 u temp2 [31:0] $end
$upscope $end
$scope module alu $end
$var wire 3 v control [2:0] $end
$var wire 32 w inA [31:0] $end
$var wire 32 x inB [31:0] $end
$var wire 32 y out [31:0] $end
$var wire 1 S zero $end
$upscope $end
$scope module data_memory $end
$var wire 32 z addr [31:0] $end
$var wire 1 4 clk $end
$var wire 32 { d_out [31:0] $end
$var wire 32 | data_in [31:0] $end
$var wire 32 } data_out [31:0] $end
$var wire 19 ~ index [18:0] $end
$var wire 32 !" internal_data_in [31:0] $end
$var wire 1 * mem_read $end
$var wire 1 , mem_write $end
$var wire 1 M reset $end
$var wire 1 "" valid_address $end
$var integer 32 #" i [31:0] $end
$upscope $end
$scope module wb_mux $end
$var wire 32 $" A [31:0] $end
$var wire 32 %" B [31:0] $end
$var wire 32 &" out [31:0] $end
$var wire 1 + sel $end
$var wire 32 '" temp1 [31:0] $end
$var wire 32 (" temp2 [31:0] $end
$upscope $end
$scope module rd_mux $end
$var wire 5 )" A [4:0] $end
$var wire 5 *" B [4:0] $end
$var wire 5 +" out [4:0] $end
$var wire 1 1 sel $end
$var wire 5 ," temp1 [4:0] $end
$var wire 5 -" temp2 [4:0] $end
$upscope $end
$scope module Register_1 $end
$var wire 1 4 clk $end
$var wire 32 ." d [31:0] $end
$var wire 1 = enable $end
$var wire 1 5 reset $end
$var reg 32 /" q [31:0] $end
$upscope $end
$scope module Register_2 $end
$var wire 1 4 clk $end
$var wire 30 0" d [29:0] $end
$var wire 1 = enable $end
$var wire 1 5 reset $end
$var reg 30 1" q [29:0] $end
$upscope $end
$scope module Register_3 $end
$var wire 1 4 clk $end
$var wire 32 2" d [31:0] $end
$var wire 1 3" enable $end
$var wire 1 M reset $end
$var reg 32 4" q [31:0] $end
$upscope $end
$scope module Register_4 $end
$var wire 1 4 clk $end
$var wire 5 5" d [4:0] $end
$var wire 1 6" enable $end
$var wire 1 M reset $end
$var reg 5 7" q [4:0] $end
$upscope $end
$scope module Register_5 $end
$var wire 1 4 clk $end
$var wire 32 8" d [31:0] $end
$var wire 1 9" enable $end
$var wire 1 M reset $end
$var reg 32 :" q [31:0] $end
$upscope $end
$scope module Register_7 $end
$var wire 1 4 clk $end
$var wire 1 B d $end
$var wire 1 ;" enable $end
$var wire 1 M reset $end
$var reg 1 <" q $end
$upscope $end
$scope module Register_10 $end
$var wire 1 4 clk $end
$var wire 1 > d $end
$var wire 1 =" enable $end
$var wire 1 M reset $end
$var reg 1 >" q $end
$upscope $end
$scope module Register_11 $end
$var wire 1 4 clk $end
$var wire 1 @ d $end
$var wire 1 ?" enable $end
$var wire 1 M reset $end
$var reg 1 @" q $end
$upscope $end
$scope module Register_12 $end
$var wire 1 4 clk $end
$var wire 1 ? d $end
$var wire 1 A" enable $end
$var wire 1 M reset $end
$var reg 1 B" q $end
$upscope $end
$scope module Fm1 $end
$var wire 32 C" A [31:0] $end
$var wire 32 D" B [31:0] $end
$var wire 32 E" out [31:0] $end
$var wire 1 6 sel $end
$var wire 32 F" temp1 [31:0] $end
$var wire 32 G" temp2 [31:0] $end
$upscope $end
$scope module Fm2 $end
$var wire 32 H" A [31:0] $end
$var wire 32 I" B [31:0] $end
$var wire 32 J" out [31:0] $end
$var wire 1 7 sel $end
$var wire 32 K" temp1 [31:0] $end
$var wire 32 L" temp2 [31:0] $end
$upscope $end
$upscope $end
$upscope $end
$scope module test $end
$scope module pm $end
$scope module rf $end
$var reg 32 M" \r[0] [31:0] $end
$upscope $end
$upscope $end
$upscope $end
$scope module test $end
$scope module pm $end
$scope module rf $end
$var reg 32 N" \r[1] [31:0] $end
$upscope $end
$upscope $end
$upscope $end
$scope module test $end
$scope module pm $end
$scope module rf $end
$var reg 32 O" \r[2] [31:0] $end
$upscope $end
$upscope $end
$upscope $end
$scope module test $end
$scope module pm $end
$scope module rf $end
$var reg 32 P" \r[3] [31:0] $end
$upscope $end
$upscope $end
$upscope $end
$scope module test $end
$scope module pm $end
$scope module rf $end
$var reg 32 Q" \r[4] [31:0] $end
$upscope $end
$upscope $end
$upscope $end
$scope module test $end
$scope module pm $end
$scope module rf $end
$var reg 32 R" \r[5] [31:0] $end
$upscope $end
$upscope $end
$upscope $end
$scope module test $end
$scope module pm $end
$scope module rf $end
$var reg 32 S" \r[6] [31:0] $end
$upscope $end
$upscope $end
$upscope $end
$scope module test $end
$scope module pm $end
$scope module rf $end
$var reg 32 T" \r[7] [31:0] $end
$upscope $end
$upscope $end
$upscope $end
$scope module test $end
$scope module pm $end
$scope module rf $end
$var reg 32 U" \r[8] [31:0] $end
$upscope $end
$upscope $end
$upscope $end
$scope module test $end
$scope module pm $end
$scope module rf $end
$var reg 32 V" \r[9] [31:0] $end
$upscope $end
$upscope $end
$upscope $end
$scope module test $end
$scope module pm $end
$scope module rf $end
$var reg 32 W" \r[10] [31:0] $end
$upscope $end
$upscope $end
$upscope $end
$scope module test $end
$scope module pm $end
$scope module rf $end
$var reg 32 X" \r[11] [31:0] $end
$upscope $end
$upscope $end
$upscope $end
$scope module test $end
$scope module pm $end
$scope module rf $end
$var reg 32 Y" \r[12] [31:0] $end
$upscope $end
$upscope $end
$upscope $end
$scope module test $end
$scope module pm $end
$scope module rf $end
$var reg 32 Z" \r[13] [31:0] $end
$upscope $end
$upscope $end
$upscope $end
$scope module test $end
$scope module pm $end
$scope module rf $end
$var reg 32 [" \r[14] [31:0] $end
$upscope $end
$upscope $end
$upscope $end
$scope module test $end
$scope module pm $end
$scope module rf $end
$var reg 32 \" \r[15] [31:0] $end
$upscope $end
$upscope $end
$upscope $end
$scope module test $end
$scope module pm $end
$scope module rf $end
$var reg 32 ]" \r[16] [31:0] $end
$upscope $end
$upscope $end
$upscope $end
$scope module test $end
$scope module pm $end
$scope module rf $end
$var reg 32 ^" \r[17] [31:0] $end
$upscope $end
$upscope $end
$upscope $end
$scope module test $end
$scope module pm $end
$scope module rf $end
$var reg 32 _" \r[18] [31:0] $end
$upscope $end
$upscope $end
$upscope $end
$scope module test $end
$scope module pm $end
$scope module rf $end
$var reg 32 `" \r[19] [31:0] $end
$upscope $end
$upscope $end
$upscope $end
$scope module test $end
$scope module pm $end
$scope module rf $end
$var reg 32 a" \r[20] [31:0] $end
$upscope $end
$upscope $end
$upscope $end
$scope module test $end
$scope module pm $end
$scope module rf $end
$var reg 32 b" \r[21] [31:0] $end
$upscope $end
$upscope $end
$upscope $end
$scope module test $end
$scope module pm $end
$scope module rf $end
$var reg 32 c" \r[22] [31:0] $end
$upscope $end
$upscope $end
$upscope $end
$scope module test $end
$scope module pm $end
$scope module rf $end
$var reg 32 d" \r[23] [31:0] $end
$upscope $end
$upscope $end
$upscope $end
$scope module test $end
$scope module pm $end
$scope module rf $end
$var reg 32 e" \r[24] [31:0] $end
$upscope $end
$upscope $end
$upscope $end
$scope module test $end
$scope module pm $end
$scope module rf $end
$var reg 32 f" \r[25] [31:0] $end
$upscope $end
$upscope $end
$upscope $end
$scope module test $end
$scope module pm $end
$scope module rf $end
$var reg 32 g" \r[26] [31:0] $end
$upscope $end
$upscope $end
$upscope $end
$scope module test $end
$scope module pm $end
$scope module rf $end
$var reg 32 h" \r[27] [31:0] $end
$upscope $end
$upscope $end
$upscope $end
$scope module test $end
$scope module pm $end
$scope module rf $end
$var reg 32 i" \r[28] [31:0] $end
$upscope $end
$upscope $end
$upscope $end
$scope module test $end
$scope module pm $end
$scope module rf $end
$var reg 32 j" \r[29] [31:0] $end
$upscope $end
$upscope $end
$upscope $end
$scope module test $end
$scope module pm $end
$scope module rf $end
$var reg 32 k" \r[30] [31:0] $end
$upscope $end
$upscope $end
$upscope $end
$scope module test $end
$scope module pm $end
$scope module rf $end
$var reg 32 l" \r[31] [31:0] $end
$upscope $end
$upscope $end
$upscope $end
$enddefinitions $end
#0
$dumpvars
b10000000000010000000000000000 l"
b10000000000010000000000000000 k"
b10000000000010000000000000000 j"
b10000000000010000000000000000 i"
b10000000000010000000000000000 h"
b10000000000010000000000000000 g"
b10000000000010000000000000000 f"
b10000000000010000000000000000 e"
b10000000000010000000000000000 d"
b10000000000010000000000000000 c"
b10000000000010000000000000000 b"
b10000000000010000000000000000 a"
b10000000000010000000000000000 `"
b10000000000010000000000000000 _"
b10000000000010000000000000000 ^"
b10000000000010000000000000000 ]"
b10000000000010000000000000000 \"
b10000000000010000000000000000 ["
b10000000000010000000000000000 Z"
b10000000000010000000000000000 Y"
b10000000000010000000000000000 X"
b10000000000010000000000000000 W"
b10000000000010000000000000000 V"
b10000000000010000000000000000 U"
b10000000000010000000000000000 T"
b10000000000010000000000000000 S"
b10000000000010000000000000000 R"
b10000000000010000000000000000 Q"
b10000000000010000000000000000 P"
b10000000000010000000000000000 O"
b10000000000010000000000000000 N"
b0 M"
bx L"
bx K"
bx J"
bx I"
bx H"
bx G"
bx F"
bx E"
bx D"
bx C"
xB"
xA"
x@"
1?"
x>"
x="
x<"
1;"
bx :"
19"
bx 8"
bx 7"
16"
bx 5"
bx 4"
13"
bx 2"
bx 1"
bx 0"
bx /"
bx ."
bx -"
bx ,"
bx +"
bx *"
bx )"
bx ("
bx '"
bx &"
bx %"
bx $"
b1000000000000000000 #"
x""
bx !"
bx ~
bx }
bx |
bx {
bx z
bx y
bx x
bx w
bx v
bx u
bx t
bx s
bx r
bx q
b100000 p
bx o
bx n
bx m
bx l
bx k
bx j
bx i
bx h
xg
xf
bx e
bx d
b100000000 c
bx b
bx a
bx `
bx _
bx ^
bx ]
bx \
bx [
bx Z
bx Y
bx X
b1 W
bx V
bx U
bx T
xS
bx R
bx Q
xP
bx O
bx N
1M
bx L
bx K
bx J
bx I
bx H
bx G
bx F
bx E
bx D
bx C
xB
bx A
x@
x?
x>
x=
bx <
bx ;
bx :
bx 9
bx 8
x7
x6
15
04
bx 3
x2
x1
bx 0
bx /
x.
bx00 -
x,
x+
x*
bx )
x(
x'
bx &
1%
b100000 $
0#
0"
bx00 !
$end
#6
1A"
1="
b0 H
b0 +"
b0 5"
1=
b0 -"
b0 ,"
b0 Z
b0 u
b11011110101011011011111011101111 {
b0 ~
0P
07
06
b0 Q
b0 j
b0 &"
b100000000000000000000 V
b100000000000000000000 a
b0 8
b0 e
1g
b0 I
b0 h
b0 J
b0 *"
b0 O
b0 o
b0 )"
b0 N
b0 m
b0 9
b0 r
b0 G"
b0 L"
0""
b0 ("
b0 '"
b100000000000000000000 U
b10000000000000000000000 -
b10000000000000000000000 !
b0 /"
b0 :
b0 1"
b0 /
b0 Y
b0 4"
b0 3
b0 z
b0 $"
b0 D"
b0 I"
b0 7"
b0 R
b0 k
b0 :"
b0 L
b0 |
0<"
02
0>"
0*
0@"
0,
0B"
0+
1"
14
#7
b0 )
b0 s
b0 x
b0 t
b0 G
b0 q
b0 8"
b0 J"
b0 K
b0 w
b0 E"
b0 K"
b0 F"
x5
b0 i
b0 E
b0 n
b0 H"
b0 F
b0 l
b0 C"
0%
0M
#8
0B
b100000000000000000001 <
b100000000000000000001 T
b100000000000000000001 ^
05
b0 `
b100000000000000000001 _
0.
11
0'
1S
b0 &
b0 d
b0 v
1f
b0 0
b0 [
b0 ]
b100000000000000000001 A
b100000000000000000001 X
b100000000000000000001 \
b100000000000000000001 0"
0(
0?
0>
0@
#9
b0 C
b0 y
b0 2"
b10001110100000100000000000000000 D
b10001110100000100000000000000000 b
b10001110100000100000000000000000 ."
b0 ;
b0 }
b0 %"
b0 !"
#12
0"
04
#18
0g
b100011 I
b100011 h
b10 O
b10 o
b10 )"
b10100 N
b10100 m
b100000000000000000001 V
b100000000000000000001 a
b100000000000000000001 1"
b100000000000000000001 /
b100000000000000000001 Y
b10001110100000100000000000000000 /"
b10001110100000100000000000000000 :
b100000000000000000001 U
b10000000000000000000100 -
b10000000000000000000100 !
1"
14
#19
b10000000000010000000000000000 )
b10000000000010000000000000000 s
b10000000000010000000000000000 x
b10000000000010000000000000000 t
b10000000000010000000000000000 G
b10000000000010000000000000000 q
b10000000000010000000000000000 8"
b10000000000010000000000000000 J"
b10000000000010000000000000000 K
b10000000000010000000000000000 w
b10000000000010000000000000000 E"
b10000000000010000000000000000 K"
b10000000000010000000000000000 F"
b10000000000010000000000000000 E
b10000000000010000000000000000 n
b10000000000010000000000000000 H"
b10000000000010000000000000000 F
b10000000000010000000000000000 l
b10000000000010000000000000000 C"
#20
b10 H
b10 +"
b10 5"
b0 )
b0 s
b0 x
1B
b10 ,"
b0 t
b100000000000000000010 <
b100000000000000000010 T
b100000000000000000010 ^
01
1'
b100000000000000000010 _
0f
1?
1>
b100000000000000000010 A
b100000000000000000010 X
b100000000000000000010 \
b100000000000000000010 0"
b100000000000000000001 0
b100000000000000000001 [
b100000000000000000001 ]
#21
0S
b10001110100000110000000000000100 D
b10001110100000110000000000000100 b
b10001110100000110000000000000100 ."
#22
b10000000000010000000000000000 C
b10000000000010000000000000000 y
b10000000000010000000000000000 2"
#24
0"
04
#30
1A"
1="
b11 H
b11 +"
b11 5"
b100 )
b100 s
b100 x
1=
b10000000000010000000000000000 K"
b0 L"
b11 ,"
b100 Z
b100 u
b1 {
b100000000000000 ~
0P
07
b100000000000000000010 V
b100000000000000000010 a
b100 8
b100 e
b11 O
b11 o
b11 )"
b100 9
b100 r
1""
b100000000000000000010 U
b10000000000000000001000 -
b10000000000000000001000 !
b10001110100000110000000000000100 /"
b10001110100000110000000000000100 :
b100000000000000000010 1"
b100000000000000000010 /
b100000000000000000010 Y
b10000000000010000000000000000 4"
b10000000000010000000000000000 3
b10000000000010000000000000000 z
b10000000000010000000000000000 $"
b10000000000010000000000000000 D"
b10000000000010000000000000000 I"
b10 7"
b10 R
b10 k
b10000000000010000000000000000 :"
b10000000000010000000000000000 L
b10000000000010000000000000000 |
1<"
12
1>"
1*
1B"
1+
1"
14
#32
b100000000000000000011 <
b100000000000000000011 T
b100000000000000000011 ^
b100000000000000000011 _
b10000000000010000000000000100 C
b10000000000010000000000000100 y
b10000000000010000000000000100 2"
b100000000000000000011 A
b100000000000000000011 X
b100000000000000000011 \
b100000000000000000011 0"
b100000000000000000110 0
b100000000000000000110 [
b100000000000000000110 ]
#33
b1 Q
b1 j
b1 &"
b1 ("
b10001110100001000000000000001000 D
b10001110100001000000000000001000 b
b10001110100001000000000000001000 ."
b1 ;
b1 }
b1 %"
b10000000000010000000000000000 !"
#34
b1 i
#36
0"
04
#42
b100 H
b100 +"
b100 5"
b1000 )
b1000 s
b1000 x
b11111111 {
b100000000000001 ~
b100 ,"
b1000 Z
b1000 u
b1000 8
b1000 e
b100 O
b100 o
b100 )"
b1000 9
b1000 r
b100000000000000000011 V
b100000000000000000011 a
b11 7"
b11 R
b11 k
b10000000000010000000000000100 4"
b10000000000010000000000000100 3
b10000000000010000000000000100 z
b10000000000010000000000000100 $"
b10000000000010000000000000100 D"
b10000000000010000000000000100 I"
b100000000000000000011 1"
b100000000000000000011 /
b100000000000000000011 Y
b10001110100001000000000000001000 /"
b10001110100001000000000000001000 :
b1 O"
b100000000000000000011 U
b10000000000000000001100 -
b10000000000000000001100 !
1"
14
#44
b100000000000000000100 <
b100000000000000000100 T
b100000000000000000100 ^
b100000000000000000100 _
b10000000000010000000000001000 C
b10000000000010000000000001000 y
b10000000000010000000000001000 2"
b100000000000000000100 A
b100000000000000000100 X
b100000000000000000100 \
b100000000000000000100 0"
b100000000000000001011 0
b100000000000000001011 [
b100000000000000001011 ]
#45
b11111111 Q
b11111111 j
b11111111 &"
b11111111 ("
b11111111 ;
b11111111 }
b11111111 %"
b10001110100001010000000000001100 D
b10001110100001010000000000001100 b
b10001110100001010000000000001100 ."
#46
b11111111 i
#48
0"
04
#54
1A"
1="
1=
b10000000000010000000000000000 G
b10000000000010000000000000000 q
b10000000000010000000000000000 8"
b10000000000010000000000000000 J"
b101 H
b101 +"
b101 5"
b1100 )
b1100 s
b1100 x
0P
b10000000000010000000000000000 K"
b0 L"
b101 ,"
b1100 Z
b1100 u
b10000000000 {
b100000000000010 ~
07
b100000000000000000100 V
b100000000000000000100 a
b1100 8
b1100 e
b101 O
b101 o
b101 )"
b1100 9
b1100 r
b100000000000000000100 U
b10000000000000000010000 -
b10000000000000000010000 !
b11111111 P"
b10001110100001010000000000001100 /"
b10001110100001010000000000001100 :
b100000000000000000100 1"
b100000000000000000100 /
b100000000000000000100 Y
b10000000000010000000000001000 4"
b10000000000010000000000001000 3
b10000000000010000000000001000 z
b10000000000010000000000001000 $"
b10000000000010000000000001000 D"
b10000000000010000000000001000 I"
b100 7"
b100 R
b100 k
1"
14
#56
b100000000000000000101 <
b100000000000000000101 T
b100000000000000000101 ^
b100000000000000000101 _
b10000000000010000000000001100 C
b10000000000010000000000001100 y
b10000000000010000000000001100 2"
b100000000000000000101 A
b100000000000000000101 X
b100000000000000000101 \
b100000000000000000101 0"
b100000000000000010000 0
b100000000000000010000 [
b100000000000000010000 ]
#57
b10000000000 Q
b10000000000 j
b10000000000 &"
b10000000000 ("
b10000000000 ;
b10000000000 }
b10000000000 %"
b10001110100001100000000000010000 D
b10001110100001100000000000010000 b
b10001110100001100000000000010000 ."
#58
b10000000000 i
#60
0"
04
#66
b110 H
b110 +"
b110 5"
b10000 )
b10000 s
b10000 x
b1100100 {
b100000000000011 ~
b110 ,"
b10000 Z
b10000 u
b10000 8
b10000 e
b110 O
b110 o
b110 )"
b10000 9
b10000 r
b100000000000000000101 V
b100000000000000000101 a
b101 7"
b101 R
b101 k
b10000000000010000000000001100 4"
b10000000000010000000000001100 3
b10000000000010000000000001100 z
b10000000000010000000000001100 $"
b10000000000010000000000001100 D"
b10000000000010000000000001100 I"
b100000000000000000101 1"
b100000000000000000101 /
b100000000000000000101 Y
b10001110100001100000000000010000 /"
b10001110100001100000000000010000 :
b10000000000 Q"
b100000000000000000101 U
b10000000000000000010100 -
b10000000000000000010100 !
1"
14
#68
b100000000000000000110 <
b100000000000000000110 T
b100000000000000000110 ^
b100000000000000000110 _
b10000000000010000000000010000 C
b10000000000010000000000010000 y
b10000000000010000000000010000 2"
b100000000000000000110 A
b100000000000000000110 X
b100000000000000000110 \
b100000000000000000110 0"
b100000000000000010101 0
b100000000000000010101 [
b100000000000000010101 ]
#69
b1100100 Q
b1100100 j
b1100100 &"
b1100100 ("
b1100100 ;
b1100100 }
b1100100 %"
b10000100011100000100000 D
b10000100011100000100000 b
b10000100011100000100000 ."
#70
b1100100 i
#72
0"
04
#78
1A"
1="
1=
b10000000000010000000000000000 G
b10000000000010000000000000000 q
b10000000000010000000000000000 8"
b10000000000010000000000000000 J"
b10 H
b10 +"
b10 5"
b11100000100000 )
b11100000100000 s
b11100000100000 x
0P
b10000000000010000000000000000 K"
b0 L"
b10 ,"
b11100000100000 Z
b11100000100000 u
b11001000 {
b100000000000100 ~
07
b100000000000000000110 V
b100000000000000000110 a
b100000 8
b100000 e
1g
b0 I
b0 h
b111 J
b111 *"
b10 O
b10 o
b10 )"
b10 N
b10 m
b11100000100000 9
b11100000100000 r
b100000000000000000110 U
b10000000000000000011000 -
b10000000000000000011000 !
b1100100 R"
b10000100011100000100000 /"
b10000100011100000100000 :
b100000000000000000110 1"
b100000000000000000110 /
b100000000000000000110 Y
b10000000000010000000000010000 4"
b10000000000010000000000010000 3
b10000000000010000000000010000 z
b10000000000010000000000010000 $"
b10000000000010000000000010000 D"
b10000000000010000000000010000 I"
b110 7"
b110 R
b110 k
1"
14
#79
b1 G
b1 q
b1 8"
b1 J"
b1 K
b1 w
b1 E"
b1 K"
b1 F"
b1 E
b1 n
b1 H"
b1 F
b1 l
b1 C"
#80
b111 H
b111 +"
b111 5"
b1 )
b1 s
b1 x
b100000000000000000111 <
b100000000000000000111 T
b100000000000000000111 ^
b0 ,"
b111 -"
b1 t
b0 u
b100000000000000000111 _
11
0'
b100000000000000000111 A
b100000000000000000111 X
b100000000000000000111 \
b100000000000000000111 0"
0?
0>
b100000011100000100110 0
b100000011100000100110 [
b100000011100000100110 ]
#81
b11001000 Q
b11001000 j
b11001000 &"
b11001000 ("
1S
b11001000 ;
b11001000 }
b11001000 %"
b100000110100000000100000 D
b100000110100000000100000 b
b100000110100000000100000 ."
#82
b11001000 i
b10 C
b10 y
b10 2"
#84
0"
04
#90
b1000 H
b1000 +"
b1000 5"
b10 Q
b10 j
b10 &"
b11011110101011011011111011101111 {
b0 ~
b1000 -"
b100000000100000 Z
b0 ("
b10 '"
0""
b1000 J
b1000 *"
b11 O
b11 o
b11 )"
b100 N
b100 m
b100000000100000 9
b100000000100000 r
b100000000000000000111 V
b100000000000000000111 a
0B"
0+
0>"
0*
b1 :"
b1 L
b1 |
b111 7"
b111 R
b111 k
b10 4"
b10 3
b10 z
b10 $"
b10 D"
b10 I"
b100000000000000000111 1"
b100000000000000000111 /
b100000000000000000111 Y
b100000110100000000100000 /"
b100000110100000000100000 :
b11001000 S"
b100000000000000000111 U
b10000000000000000011100 -
b10000000000000000011100 !
1"
14
#91
b11111111 )
b11111111 s
b11111111 x
b11111111 t
b11111111 G
b11111111 q
b11111111 8"
b11111111 J"
b10000000000 K
b10000000000 w
b10000000000 E"
b11111111 K"
b10000000000 F"
b10 i
b11111111 E
b11111111 n
b11111111 H"
b10000000000 F
b10000000000 l
b10000000000 C"
#92
b100000000000000001000 <
b100000000000000001000 T
b100000000000000001000 ^
b100000000000000001000 _
0S
b100000000000000001000 A
b100000000000000001000 X
b100000000000000001000 \
b100000000000000001000 0"
b100000100000000100111 0
b100000100000000100111 [
b100000100000000100111 ]
#93
b10011111111 C
b10011111111 y
b10011111111 2"
b101000000100100000100010 D
b101000000100100000100010 b
b101000000100100000100010 ."
b0 ;
b0 }
b0 %"
b1 !"
#96
0"
04
#102
b1001 H
b1001 +"
b1001 5"
b1001 -"
b100100000100010 Z
b10011111111 Q
b10011111111 j
b10011111111 &"
b100111111 ~
b100000000000000001000 V
b100000000000000001000 a
b100010 8
b100010 e
b1001 J
b1001 *"
b0 O
b0 o
b0 )"
b101 N
b101 m
b100100000100010 9
b100100000100010 r
b10011111111 '"
b100000000000000001000 U
b10000000000000000100000 -
b10000000000000000100000 !
b10 T"
b101000000100100000100010 /"
b101000000100100000100010 :
b100000000000000001000 1"
b100000000000000001000 /
b100000000000000001000 Y
b10011111111 4"
b10011111111 3
b10011111111 z
b10011111111 $"
b10011111111 D"
b10011111111 I"
b1000 7"
b1000 R
b1000 k
b11111111 :"
b11111111 L
b11111111 |
1"
14
#103
b0 )
b0 s
b0 x
b0 t
b0 G
b0 q
b0 8"
b0 J"
b1100100 K
b1100100 w
b1100100 E"
b0 K"
b1100100 F"
b10011111111 i
b0 E
b0 n
b0 H"
b1100100 F
b1100100 l
b1100100 C"
#104
b100000000000000001001 <
b100000000000000001001 T
b100000000000000001001 ^
b100000000000000001001 _
b1 &
b1 d
b1 v
b100000000000000001001 A
b100000000000000001001 X
b100000000000000001001 \
b100000000000000001001 0"
b100000100100000101010 0
b100000100100000101010 [
b100000100100000101010 ]
#105
b1100100 C
b1100100 y
b1100100 2"
b100000110101000000100100 D
b100000110101000000100100 b
b100000110101000000100100 ."
b11111111 !"
#108
0"
04
#114
b1010 H
b1010 +"
b1010 5"
b1100100 Q
b1100100 j
b1100100 &"
b11001 ~
b1010 -"
b101000000100100 Z
b1100100 '"
b100100 8
b100100 e
b1010 J
b1010 *"
b11 O
b11 o
b11 )"
b100 N
b100 m
b101000000100100 9
b101000000100100 r
b100000000000000001001 V
b100000000000000001001 a
b0 :"
b0 L
b0 |
b1001 7"
b1001 R
b1001 k
b1100100 4"
b1100100 3
b1100100 z
b1100100 $"
b1100100 D"
b1100100 I"
b100000000000000001001 1"
b100000000000000001001 /
b100000000000000001001 Y
b100000110101000000100100 /"
b100000110101000000100100 :
b10011111111 U"
b100000000000000001001 U
b10000000000000000100100 -
b10000000000000000100100 !
1"
14
#115
b11111111 )
b11111111 s
b11111111 x
b11111111 t
b11111111 G
b11111111 q
b11111111 8"
b11111111 J"
b10000000000 K
b10000000000 w
b10000000000 E"
b11111111 K"
b10000000000 F"
b1100100 i
b11111111 E
b11111111 n
b11111111 H"
b10000000000 F
b10000000000 l
b10000000000 C"
#116
b100000000000000001010 <
b100000000000000001010 T
b100000000000000001010 ^
b100000000000000001010 _
b10 &
b10 d
b10 v
b100000000000000001010 A
b100000000000000001010 X
b100000000000000001010 \
b100000000000000001010 0"
b100000101000000101101 0
b100000101000000101101 [
b100000101000000101101 ]
#117
b10001001001010000000000000010 D
b10001001001010000000000000010 b
b10001001001010000000000000010 ."
b0 !"
#118
b0 C
b0 y
b0 2"
#120
0"
04
#126
b0 H
b0 +"
b0 5"
b0 -"
b10 Z
b0 Q
b0 j
b0 &"
b0 ~
b100000000000000001010 V
b100000000000000001010 a
b10 8
b10 e
0g
b100 I
b100 h
b0 J
b0 *"
b101 O
b101 o
b101 )"
b1001 N
b1001 m
b10 9
b10 r
b0 '"
b100000000000000001010 U
b10000000000000000101000 -
b10000000000000000101000 !
b1100100 V"
b10001001001010000000000000010 /"
b10001001001010000000000000010 :
b100000000000000001010 1"
b100000000000000001010 /
b100000000000000001010 Y
b0 4"
b0 3
b0 z
b0 $"
b0 D"
b0 I"
b1010 7"
b1010 R
b1010 k
b11111111 :"
b11111111 L
b11111111 |
1"
14
#127
b1100100 )
b1100100 s
b1100100 x
b1100100 t
b1100100 G
b1100100 q
b1100100 8"
b1100100 J"
b1100100 K
b1100100 w
b1100100 E"
b1100100 K"
b1100100 F"
b0 i
b1100100 E
b1100100 n
b1100100 H"
b1100100 F
b1100100 l
b1100100 C"
