CS 233/Lab2/kp.vcd
$date
	Tue Sep  5 17:20:53 2017
$end
$version
	Icarus Verilog
$end
$timescale
	1s
$end
$scope module keypad_test $end
$var wire 7 ! inputs [6:0] $end
$var wire 4 " number [3:0] $end
$var wire 1 # valid $end
$var reg 1 $ a $end
$var reg 1 % b $end
$var reg 1 & c $end
$var reg 1 ' d $end
$var reg 1 ( e $end
$var reg 1 ) f $end
$var reg 1 * g $end
$scope module kp $end
$var wire 1 + a $end
$var wire 1 , b $end
$var wire 1 - c $end
$var wire 1 . d $end
$var wire 1 / e $end
$var wire 1 0 f $end
$var wire 1 1 g $end
$var wire 4 2 number [3:0] $end
$var wire 1 # valid $end
$var wire 1 3 w1 $end
$var wire 1 4 w10 $end
$var wire 1 5 w11 $end
$var wire 1 6 w12 $end
$var wire 1 7 w13 $end
$var wire 1 8 w14 $end
$var wire 1 9 w2 $end
$var wire 1 : w3 $end
$var wire 1 ; w4 $end
$var wire 1 < w5 $end
$var wire 1 = w6 $end
$var wire 1 > w7 $end
$var wire 1 ? w8 $end
$var wire 1 @ w9 $end
$upscope $end
$upscope $end
$enddefinitions $end
#0
$dumpvars
0@
0?
0>
0=
0<
0;
0:
09
08
07
06
05
04
03
b0 2
01
00
0/
0.
0-
0,
0+
0*
0)
0(
0'
0&
0%
0$
0#
b0 "
b0 !
$end
#10
b1 "
b1 2
1#
13
1'
1.
1$
b1001000 !
1+
#20
b10 "
b10 2
1=
03
1%
1,
0$
b101000 !
0+
#30
b11 "
b11 2
19
1>
0=
1&
1-
0%
b11000 !
0,
#40
b100 "
b100 2
1@
09
0>
1(
1/
1$
1+
0'
0.
0&
b1000100 !
0-
#50
1<
14
0@
1%
1,
0$
b100100 !
0+
#60
b110 "
b110 2
1?
15
0<
04
1&
1-
0%
b10100 !
0,
#70
b101 "
b101 2
1:
16
0?
05
1)
10
1$
1+
0(
0/
0&
b1000010 !
0-
#80
b1000 "
b1000 2
17
0:
06
1%
1,
0$
b100010 !
0+
#90
b1001 "
b1001 2
1;
18
07
1&
1-
0%
b10010 !
0,
#100
b0 "
b0 2
0;
08
1*
11
1%
1,
0)
00
0&
b100001 !
0-
#110
0#
0*
01
0%
b0 !
0,
