CS 233/Lab9/m.vcd
$date
	Sun Oct 29 01:26:38 2017
$end
$version
	Icarus Verilog
$end
$timescale
	1s
$end
$scope module test $end
$var wire 32 ! PC [31:0] $end
$var reg 1 " clk $end
$var reg 1 # done $end
$var integer 32 $ i [31:0] $end
$var reg 1 % reset $end
$scope module m $end
$var wire 3 & ALUOp [2:0] $end
$var wire 1 ' ALUSrc $end
$var wire 1 ( BEQ $end
$var wire 32 ) B_data [31:0] $end
$var wire 30 * EPC [29:0] $end
$var wire 1 + ERET $end
$var wire 1 , MFC0 $end
$var wire 1 - MTC0 $end
$var wire 1 . MemRead $end
$var wire 1 / MemToReg $end
$var wire 1 0 MemWrite $end
$var wire 1 1 NOTIO $end
$var wire 32 2 PC [31:0] $end
$var wire 1 3 PCSrc $end
$var wire 30 4 PC_plus4 [31:2] $end
$var wire 30 5 PC_target [31:2] $end
$var wire 1 6 RegDst $end
$var wire 1 7 RegWrite $end
$var wire 1 8 TakenInterrupt $end
$var wire 1 9 TimerAddress $end
$var wire 1 : TimerInterrupt $end
$var wire 32 ; alu_out_data [31:0] $end
$var wire 1 < clk $end
$var wire 32 = cycle [31:0] $end
$var wire 32 > imm [31:0] $end
$var wire 32 ? inst [31:0] $end
$var wire 32 @ load_data [31:0] $end
$var wire 1 A negative $end
$var wire 30 B next_PC [31:2] $end
$var wire 1 C old_MemRead $end
$var wire 1 D old_MemWrite $end
$var wire 32 E old_load_data [31:0] $end
$var wire 30 F old_next_PC [31:2] $end
$var wire 30 G old_old_next_PC [31:2] $end
$var wire 32 H old_wr_data [31:0] $end
$var wire 5 I rd [4:0] $end
$var wire 32 J rd1_data [31:0] $end
$var wire 32 K rd2_data [31:0] $end
$var wire 32 L rd_data [31:0] $end
$var wire 1 M reset $end
$var wire 5 N rs [4:0] $end
$var wire 5 O rt [4:0] $end
$var wire 32 P temp [31:0] $end
$var wire 32 Q wr_data [31:0] $end
$var wire 5 R wr_regnum [4:0] $end
$var wire 1 S zero $end
$scope module PC_reg $end
$var wire 1 < clk $end
$var wire 30 T d [29:0] $end
$var wire 1 U enable $end
$var wire 1 M reset $end
$var reg 30 V q [29:0] $end
$upscope $end
$scope module next_PC_adder $end
$var wire 30 W in1 [29:0] $end
$var wire 30 X in2 [29:0] $end
$var wire 30 Y out [29:0] $end
$upscope $end
$scope module target_PC_adder $end
$var wire 30 Z in1 [29:0] $end
$var wire 30 [ in2 [29:0] $end
$var wire 30 \ out [29:0] $end
$upscope $end
$scope module branch_mux $end
$var wire 30 ] A [29:0] $end
$var wire 30 ^ B [29:0] $end
$var wire 30 _ out [29:0] $end
$var wire 1 3 sel $end
$var wire 30 ` temp1 [29:0] $end
$var wire 30 a temp2 [29:0] $end
$upscope $end
$scope module imem $end
$var wire 30 b addr [29:0] $end
$var wire 32 c data [31:0] $end
$var wire 32 d kdata [31:0] $end
$var wire 32 e tdata [31:0] $end
$var reg 32 f i [31:0] $end
$upscope $end
$scope module decode $end
$var wire 3 g ALUOp [2:0] $end
$var wire 1 ' ALUSrc $end
$var wire 1 ( BEQ $end
$var wire 1 + ERET $end
$var wire 1 , MFC0 $end
$var wire 1 - MTC0 $end
$var wire 1 C MemRead $end
$var wire 1 / MemToReg $end
$var wire 1 D MemWrite $end
$var wire 1 6 RegDst $end
$var wire 1 7 RegWrite $end
$var wire 1 h co $end
$var wire 6 i funct [5:0] $end
$var wire 32 j inst [31:0] $end
$var wire 1 k nop $end
$var wire 1 l op0 $end
$var wire 6 m opcode [5:0] $end
$var wire 5 n rs [4:0] $end
$upscope $end
$scope module rf $end
$var wire 1 < clock $end
$var wire 32 o internal_rdData [31:0] $end
$var wire 32 p rdData [31:0] $end
$var wire 5 q rdNum [4:0] $end
$var wire 1 7 rdWriteEnable $end
$var wire 1 M reset $end
$var wire 32 r rsData [31:0] $end
$var wire 5 s rsNum [4:0] $end
$var wire 32 t rtData [31:0] $end
$var wire 5 u rtNum [4:0] $end
$var integer 32 v i [31:0] $end
$upscope $end
$scope module imm_mux $end
$var wire 32 w A [31:0] $end
$var wire 32 x B [31:0] $end
$var wire 32 y out [31:0] $end
$var wire 1 ' sel $end
$var wire 32 z temp1 [31:0] $end
$var wire 32 { temp2 [31:0] $end
$upscope $end
$scope module alu $end
$var wire 3 | control [2:0] $end
$var wire 32 } inA [31:0] $end
$var wire 32 ~ inB [31:0] $end
$var wire 1 A negative $end
$var wire 32 !" out [31:0] $end
$var wire 1 S zero $end
$upscope $end
$scope module data_memory $end
$var wire 32 "" addr [31:0] $end
$var wire 1 < clk $end
$var wire 32 #" d_out [31:0] $end
$var wire 32 $" data_in [31:0] $end
$var wire 32 %" data_out [31:0] $end
$var wire 19 &" index [18:0] $end
$var wire 1 . mem_read $end
$var wire 1 0 mem_write $end
$var wire 1 M reset $end
$var integer 32 '" i [31:0] $end
$scope module t $end
$var wire 1 . control $end
$var wire 32 (" d [31:0] $end
$var wire 32 )" o [31:0] $end
$upscope $end
$upscope $end
$scope module wb_mux $end
$var wire 32 *" A [31:0] $end
$var wire 32 +" B [31:0] $end
$var wire 32 ," out [31:0] $end
$var wire 1 / sel $end
$var wire 32 -" temp1 [31:0] $end
$var wire 32 ." temp2 [31:0] $end
$upscope $end
$scope module rd_mux $end
$var wire 5 /" A [4:0] $end
$var wire 5 0" B [4:0] $end
$var wire 5 1" out [4:0] $end
$var wire 1 6 sel $end
$var wire 5 2" temp1 [4:0] $end
$var wire 5 3" temp2 [4:0] $end
$upscope $end
$scope module cp1 $end
$var wire 30 4" EPC [29:0] $end
$var wire 1 + ERET $end
$var wire 1 - MTC0 $end
$var wire 1 8 TakenInterrupt $end
$var wire 1 : TimerInterrupt $end
$var wire 32 5" cause_register [31:0] $end
$var wire 1 < clock $end
$var wire 32 6" de_out [31:0] $end
$var wire 32 7" epc_af [31:0] $end
$var wire 1 8" epc_en $end
$var wire 30 9" epc_in [29:0] $end
$var wire 1 :" except_re $end
$var wire 30 ;" next_pc [29:0] $end
$var wire 1 <" not_status_register $end
$var wire 32 =" rd_data [31:0] $end
$var wire 5 >" regnum [4:0] $end
$var wire 1 M reset $end
$var wire 32 ?" status_register [31:0] $end
$var wire 1 @" user_en $end
$var wire 32 A" user_status [31:0] $end
$var wire 32 B" wr_data [31:0] $end
$scope module d1 $end
$var wire 1 - enable $end
$var wire 5 C" in [4:0] $end
$var wire 32 D" out [31:0] $end
$upscope $end
$scope module m1 $end
$var wire 30 E" A [29:0] $end
$var wire 30 F" B [29:0] $end
$var wire 30 G" out [29:0] $end
$var wire 1 8 sel $end
$var wire 30 H" temp1 [29:0] $end
$var wire 30 I" temp2 [29:0] $end
$upscope $end
$scope module r1 $end
$var wire 1 < clk $end
$var wire 32 J" d [31:0] $end
$var wire 1 @" enable $end
$var wire 1 M reset $end
$var reg 32 K" q [31:0] $end
$upscope $end
$scope module r2 $end
$var wire 1 < clk $end
$var wire 30 L" d [29:0] $end
$var wire 1 8" enable $end
$var wire 1 M reset $end
$var reg 30 M" q [29:0] $end
$upscope $end
$scope module df1 $end
$var wire 1 < clk $end
$var wire 1 N" d $end
$var wire 1 8 enable $end
$var wire 1 :" reset $end
$var reg 1 O" q $end
$upscope $end
$upscope $end
$scope module time1 $end
$var wire 1 P" Acknowledge $end
$var wire 1 C MemRead $end
$var wire 1 D MemWrite $end
$var wire 1 9 TimerAddress $end
$var wire 1 : TimerInterrupt $end
$var wire 1 Q" TimerRead $end
$var wire 1 R" TimerWrite $end
$var wire 32 S" address [31:0] $end
$var wire 1 < clock $end
$var wire 32 T" cycle [31:0] $end
$var wire 32 U" data [31:0] $end
$var wire 32 V" data_1 [31:0] $end
$var wire 32 W" data_out_1 [31:0] $end
$var wire 32 X" data_out_2 [31:0] $end
$var wire 1 Y" new_en $end
$var wire 1 Z" new_re $end
$var wire 1 M reset $end
$var wire 1 [" w1 $end
$var wire 1 \" w2 $end
$scope module r1 $end
$var wire 1 < clk $end
$var wire 32 ]" d [31:0] $end
$var wire 1 R" enable $end
$var wire 1 M reset $end
$var reg 32 ^" q [31:0] $end
$upscope $end
$scope module r2 $end
$var wire 1 < clk $end
$var wire 32 _" d [31:0] $end
$var wire 1 `" enable $end
$var wire 1 M reset $end
$var reg 32 a" q [31:0] $end
$upscope $end
$scope module a1 $end
$var wire 3 b" control [2:0] $end
$var wire 32 c" inA [31:0] $end
$var wire 32 d" inB [31:0] $end
$var wire 1 e" negative $end
$var wire 32 f" out [31:0] $end
$var wire 1 g" zero $end
$upscope $end
$scope module d3 $end
$var wire 1 < clk $end
$var wire 1 h" d $end
$var wire 1 Y" enable $end
$var wire 1 Z" reset $end
$var reg 1 i" q $end
$upscope $end
$scope module t1 $end
$var wire 1 Q" control $end
$var wire 32 j" d [31:0] $end
$var wire 32 k" o [31:0] $end
$upscope $end
$upscope $end
$scope module m1 $end
$var wire 32 l" A [31:0] $end
$var wire 32 m" B [31:0] $end
$var wire 32 n" out [31:0] $end
$var wire 1 , sel $end
$var wire 32 o" temp1 [31:0] $end
$var wire 32 p" temp2 [31:0] $end
$upscope $end
$scope module m2 $end
$var wire 30 q" A [29:0] $end
$var wire 30 r" B [29:0] $end
$var wire 30 s" out [29:0] $end
$var wire 1 + sel $end
$var wire 30 t" temp1 [29:0] $end
$var wire 30 u" temp2 [29:0] $end
$upscope $end
$scope module m3 $end
$var wire 30 v" A [29:0] $end
$var wire 30 w" B [29:0] $end
$var wire 30 x" out [29:0] $end
$var wire 1 8 sel $end
$var wire 30 y" temp1 [29:0] $end
$var wire 30 z" temp2 [29:0] $end
$upscope $end
$upscope $end
$upscope $end
$scope module test $end
$scope module m $end
$scope module rf $end
$var reg 32 {" \r[0] [31:0] $end
$upscope $end
$upscope $end
$upscope $end
$scope module test $end
$scope module m $end
$scope module rf $end
$var reg 32 |" \r[1] [31:0] $end
$upscope $end
$upscope $end
$upscope $end
$scope module test $end
$scope module m $end
$scope module rf $end
$var reg 32 }" \r[2] [31:0] $end
$upscope $end
$upscope $end
$upscope $end
$scope module test $end
$scope module m $end
$scope module rf $end
$var reg 32 ~" \r[3] [31:0] $end
$upscope $end
$upscope $end
$upscope $end
$scope module test $end
$scope module m $end
$scope module rf $end
$var reg 32 !# \r[4] [31:0] $end
$upscope $end
$upscope $end
$upscope $end
$scope module test $end
$scope module m $end
$scope module rf $end
$var reg 32 "# \r[5] [31:0] $end
$upscope $end
$upscope $end
$upscope $end
$scope module test $end
$scope module m $end
$scope module rf $end
$var reg 32 ## \r[6] [31:0] $end
$upscope $end
$upscope $end
$upscope $end
$scope module test $end
$scope module m $end
$scope module rf $end
$var reg 32 $# \r[7] [31:0] $end
$upscope $end
$upscope $end
$upscope $end
$scope module test $end
$scope module m $end
$scope module rf $end
$var reg 32 %# \r[8] [31:0] $end
$upscope $end
$upscope $end
$upscope $end
$scope module test $end
$scope module m $end
$scope module rf $end
$var reg 32 &# \r[9] [31:0] $end
$upscope $end
$upscope $end
$upscope $end
$scope module test $end
$scope module m $end
$scope module rf $end
$var reg 32 '# \r[10] [31:0] $end
$upscope $end
$upscope $end
$upscope $end
$scope module test $end
$scope module m $end
$scope module rf $end
$var reg 32 (# \r[11] [31:0] $end
$upscope $end
$upscope $end
$upscope $end
$scope module test $end
$scope module m $end
$scope module rf $end
$var reg 32 )# \r[12] [31:0] $end
$upscope $end
$upscope $end
$upscope $end
$scope module test $end
$scope module m $end
$scope module rf $end
$var reg 32 *# \r[13] [31:0] $end
$upscope $end
$upscope $end
$upscope $end
$scope module test $end
$scope module m $end
$scope module rf $end
$var reg 32 +# \r[14] [31:0] $end
$upscope $end
$upscope $end
$upscope $end
$scope module test $end
$scope module m $end
$scope module rf $end
$var reg 32 ,# \r[15] [31:0] $end
$upscope $end
$upscope $end
$upscope $end
$scope module test $end
$scope module m $end
$scope module rf $end
$var reg 32 -# \r[16] [31:0] $end
$upscope $end
$upscope $end
$upscope $end
$scope module test $end
$scope module m $end
$scope module rf $end
$var reg 32 .# \r[17] [31:0] $end
$upscope $end
$upscope $end
$upscope $end
$scope module test $end
$scope module m $end
$scope module rf $end
$var reg 32 /# \r[18] [31:0] $end
$upscope $end
$upscope $end
$upscope $end
$scope module test $end
$scope module m $end
$scope module rf $end
$var reg 32 0# \r[19] [31:0] $end
$upscope $end
$upscope $end
$upscope $end
$scope module test $end
$scope module m $end
$scope module rf $end
$var reg 32 1# \r[20] [31:0] $end
$upscope $end
$upscope $end
$upscope $end
$scope module test $end
$scope module m $end
$scope module rf $end
$var reg 32 2# \r[21] [31:0] $end
$upscope $end
$upscope $end
$upscope $end
$scope module test $end
$scope module m $end
$scope module rf $end
$var reg 32 3# \r[22] [31:0] $end
$upscope $end
$upscope $end
$upscope $end
$scope module test $end
$scope module m $end
$scope module rf $end
$var reg 32 4# \r[23] [31:0] $end
$upscope $end
$upscope $end
$upscope $end
$scope module test $end
$scope module m $end
$scope module rf $end
$var reg 32 5# \r[24] [31:0] $end
$upscope $end
$upscope $end
$upscope $end
$scope module test $end
$scope module m $end
$scope module rf $end
$var reg 32 6# \r[25] [31:0] $end
$upscope $end
$upscope $end
$upscope $end
$scope module test $end
$scope module m $end
$scope module rf $end
$var reg 32 7# \r[26] [31:0] $end
$upscope $end
$upscope $end
$upscope $end
$scope module test $end
$scope module m $end
$scope module rf $end
$var reg 32 8# \r[27] [31:0] $end
$upscope $end
$upscope $end
$upscope $end
$scope module test $end
$scope module m $end
$scope module rf $end
$var reg 32 9# \r[28] [31:0] $end
$upscope $end
$upscope $end
$upscope $end
$scope module test $end
$scope module m $end
$scope module rf $end
$var reg 32 :# \r[29] [31:0] $end
$upscope $end
$upscope $end
$upscope $end
$scope module test $end
$scope module m $end
$scope module rf $end
$var reg 32 ;# \r[30] [31:0] $end
$upscope $end
$upscope $end
$upscope $end
$scope module test $end
$scope module m $end
$scope module rf $end
$var reg 32 <# \r[31] [31:0] $end
$upscope $end
$upscope $end
$upscope $end
$enddefinitions $end
#0
$dumpvars
b10000000000010000000000000000 <#
b10000000000010000000000000000 ;#
b10000000000010000000000000000 :#
b10000000000010000000000000000 9#
b10000000000010000000000000000 8#
b10000000000010000000000000000 7#
b10000000000010000000000000000 6#
b10000000000010000000000000000 5#
b10000000000010000000000000000 4#
b10000000000010000000000000000 3#
b10000000000010000000000000000 2#
b10000000000010000000000000000 1#
b10000000000010000000000000000 0#
b10000000000010000000000000000 /#
b10000000000010000000000000000 .#
b10000000000010000000000000000 -#
b10000000000010000000000000000 ,#
b10000000000010000000000000000 +#
b10000000000010000000000000000 *#
b10000000000010000000000000000 )#
b10000000000010000000000000000 (#
b10000000000010000000000000000 '#
b10000000000010000000000000000 &#
b10000000000010000000000000000 %#
b10000000000010000000000000000 $#
b10000000000010000000000000000 ##
b10000000000010000000000000000 "#
b10000000000010000000000000000 !#
b10000000000010000000000000000 ~"
b10000000000010000000000000000 }"
b10000000000010000000000000000 |"
b0 {"
bx0000000000000000000000xx00000 z"
bx y"
bx x"
b100000000000000000000001100000 w"
bx v"
bx u"
bx t"
bx s"
bx r"
bx q"
b0xxxxxxxxxxxxxxxxxxxxxxxxxxxxxx p"
bx o"
bx n"
b0xxxxxxxxxxxxxxxxxxxxxxxxxxxxxx m"
bx l"
bx k"
bx j"
xi"
1h"
xg"
bx f"
xe"
b1 d"
bx c"
b0 b"
bx a"
1`"
bx _"
bx ^"
bx ]"
x\"
x["
1Z"
xY"
bx X"
bx W"
bx V"
bx U"
bx T"
bx S"
xR"
xQ"
xP"
xO"
1N"
bx M"
bx L"
bx K"
bx J"
bx I"
bx H"
bx G"
bx F"
bx E"
bx D"
bx C"
bx B"
bx A"
x@"
b0xxxxxxxx000000xx ?"
bx >"
b0xxxxxxxxxxxxxxxxxxxxxxxxxxxxxx ="
x<"
bx ;"
1:"
bx 9"
x8"
b0xxxxxxxxxxxxxxxxxxxxxxxxxxxxxx 7"
bx 6"
b0x000000000000000 5"
bx 4"
bx 3"
bx 2"
bx 1"
bx 0"
bx /"
bx ."
bx -"
bx ,"
bx +"
bx *"
bx )"
bx ("
b1000000000000000000 '"
bx &"
bx %"
bx $"
bx #"
bx ""
bx !"
bx ~
bx }
bx |
bx {
bx z
bx y
bx x
bx w
b100000 v
bx u
bx t
bx s
bx r
bx q
bx p
bx o
bx n
bx m
xl
xk
bx j
bx i
xh
bx g
b100000000 f
bx e
bx d
bx c
bx b
bx a
bx `
bx _
bx ^
bx ]
bx \
bx [
bx Z
bx Y
b1 X
bx W
bx V
1U
bx T
xS
bx R
bx Q
b10000000000000000000000110000000 P
bx O
bx N
1M
b0xxxxxxxxxxxxxxxxxxxxxxxxxxxxxx L
bx K
bx J
bx I
bx H
bx G
bx F
bx E
xD
xC
bx B
xA
bx @
bx ?
bx >
bx =
0<
bx ;
x:
x9
x8
x7
x6
bx 5
bx 4
x3
bx00 2
x1
x0
x/
x.
x-
x,
x+
bx *
bx )
x(
x'
bx &
1%
b100000 $
0#
0"
bx00 !
$end
#5
b1000000000000001 o
b1000000000000001 Q
b1000000000000001 p
b1000000000000001 n"
b1000000000000001 o"
b1000000000000001 H
b1000000000000001 ,"
b1000000000000001 l"
b1000000000000001 ."
b1000000000000001 E
b1000000000000001 %"
b1000000000000001 )"
b1000000000000001 @
b1000000000000001 +"
b1000000000000001 #"
b1000000000000001 ("
0S
1.
b100000000000000 &"
11
bz =
bz T"
bz k"
0A
09
0Q"
0["
0\"
b10000000000010000000000000000 ;
b10000000000010000000000000000 !"
b10000000000010000000000000000 ""
b10000000000010000000000000000 *"
b10000000000010000000000000000 S"
b0 &
b0 g
b0 |
b100000000000000000001 B
b100000000000000000001 T
b100000000000000000001 x"
b100000000000000000001 y"
b100000000000000000001 F
b100000000000000000001 s"
b100000000000000000001 v"
17
b100000000000000000001 t"
08"
b100000000000100000000000000 9"
b100000000000100000000000000 G"
b100000000000100000000000000 L"
b100000000000000000001 G
b100000000000000000001 _
b100000000000000000001 ;"
b100000000000000000001 F"
b100000000000000000001 q"
06
0@"
b100000000000100000000000000 H"
b10 R
b10 q
b10 1"
b0 a
b0 )
b0 y
b0 ~
03
b0 -"
0R"
0P"
1'
00
0+
0k
0,
0-
b0 3"
b0 6"
b0 D"
b0 z
b100000000000100000000000000 E"
b10 2"
b0 [
b100000000000000000001 5
b100000000000000000001 \
b100000000000000000001 ^
b0 {
0(
1/
1C
0D
0l
b100011 m
b0 i
b10100 n
1h
b0 I
b0 0"
b0 >"
b0 C"
b10000000000010000000000000000 K
b10000000000010000000000000000 t
b10000000000010000000000000000 w
b10000000000010000000000000000 $"
b10000000000010000000000000000 B"
b10000000000010000000000000000 J"
b10000000000010000000000000000 U"
b10000000000010000000000000000 ]"
b10 O
b10 u
b10 /"
b10000000000010000000000000000 J
b10000000000010000000000000000 r
b10000000000010000000000000000 }
b10100 N
b10100 s
b0 >
b0 x
0e"
b0 I"
b0 z"
b10001110100000100000000000000000 ?
b10001110100000100000000000000000 c
b10001110100000100000000000000000 j
b0 p"
0g"
b1 V"
b1 _"
b1 f"
08
b100000000000000000001 `
b10001110100000100000000000000000 e
b0 d
b0 L
b0 ="
b0 m"
1<"
b100000000000000000000 W
b100000000000000000001 4
b100000000000000000001 Y
b100000000000000000001 Z
b100000000000000000001 ]
b100000000000000000000 b
b0 u"
b100000000000000000000 V
b10000000000000000000000 2
b10000000000000000000000 !
b0 K"
b0 A"
b0 M"
b0 7"
b0 *
b0 4"
b0 r"
0O"
b0 ?"
b11111111111111111111111111111111 ^"
0Y"
b11111111111111111111111111111111 W"
b0 a"
b0 X"
b0 c"
b0 j"
0i"
b0 5"
0:
1"
1<
#7
0:"
0Z"
0%
0M
#10
0"
0<
#15
b11011110101011011011111011101111 #"
b11011110101011011011111011101111 ("
b110000000000000 &"
07
b10000000000011000000000000001 ;
b10000000000011000000000000001 !"
b10000000000011000000000000001 ""
b10000000000011000000000000001 *"
b10000000000011000000000000001 S"
b1100 R
b1100 q
b1100 1"
b10000000000011000000000000001 o
b10000000000011000000000000001 Q
b10000000000011000000000000001 p
b10000000000011000000000000001 n"
b100000000000000000010 B
b100000000000000000010 T
b100000000000000000010 x"
b0 2"
b1100 3"
b10000000000011000000000000001 o"
1@"
b100000000000000000010 y"
16
b10000000000011000000000000001 H
b10000000000011000000000000001 ,"
b10000000000011000000000000001 l"
b1000000000000001 z
bz E
bz %"
bz )"
bz @
bz +"
b1000000000000 6"
b1000000000000 D"
b1000000000000001 )
b1000000000000001 y
b1000000000000001 ~
b100000000000000000010 F
b100000000000000000010 s"
b100000000000000000010 v"
b10000000000011000000000000001 -"
b0 ."
0'
0.
1-
b110000000000000 [
b0 {
b100000000000000000010 t"
0/
0C
b10000 m
b100 n
0h
b1100 I
b1100 0"
b1100 >"
b1100 C"
b100 N
b100 s
b110000000000000 >
b110000000000000 x
b10 V"
b10 _"
b10 f"
b10000000000000 9"
b10000000000000 G"
b10000000000000 L"
b100000000000000000010 G
b100000000000000000010 _
b100000000000000000010 ;"
b100000000000000000010 F"
b100000000000000000010 q"
b1000000100000100110000000000000 ?
b1000000100000100110000000000000 c
b1000000100000100110000000000000 j
b10000000000000 H"
b100000000000000000010 `
b1000000100000100110000000000000 e
b10000000000000 E"
b100000000000000000001 W
b100000110000000000010 5
b100000110000000000010 \
b100000110000000000010 ^
b100000000000000000010 4
b100000000000000000010 Y
b100000000000000000010 Z
b100000000000000000010 ]
b100000000000000000001 b
b1 a"
b1 X"
b1 c"
b1 j"
b1000000000000001 }"
b1000000000000001 K
b1000000000000001 t
b1000000000000001 w
b1000000000000001 $"
b1000000000000001 B"
b1000000000000001 J"
b1000000000000001 U"
b1000000000000001 ]"
b100000000000000000001 V
b10000000000000000000100 2
b10000000000000000000100 !
1"
1<
#20
0"
0<
#25
b11111111111111110000000000011100 #"
b11111111111111110000000000011100 ("
b100000000000001 &"
17
b10000000000010000000000000100 ;
b10000000000010000000000000100 !"
b10000000000010000000000000100 ""
b10000000000010000000000000100 *"
b10000000000010000000000000100 S"
b11111111111111110000000000011100 o
b11111111111111110000000000011100 Q
b11111111111111110000000000011100 p
b11111111111111110000000000011100 n"
b100000000000000000011 B
b100000000000000000011 T
b100000000000000000011 x"
b11 2"
b11111111111111110000000000011100 o"
b100000000000100000000000000 9"
b100000000000100000000000000 G"
b100000000000100000000000000 L"
b100000000000000000011 y"
06
b11111111111111110000000000011100 H
b11111111111111110000000000011100 ,"
b11111111111111110000000000011100 l"
b100 {
b11111111111111110000000000011100 E
b11111111111111110000000000011100 %"
b11111111111111110000000000011100 )"
b11111111111111110000000000011100 @
b11111111111111110000000000011100 +"
b11 R
b11 q
b11 1"
0@"
b100 )
b100 y
b100 ~
b100000000000100000000000000 H"
b100000000000000000011 F
b100000000000000000011 s"
b100000000000000000011 v"
b0 -"
b11111111111111110000000000011100 ."
1'
1.
0-
b0 3"
b0 6"
b0 D"
b0 z
b100000000000100000000000000 E"
b100 [
b100000000000000000011 t"
1/
1C
b100011 m
b100 i
b10100 n
1h
b0 I
b0 0"
b0 >"
b0 C"
b10000000000010000000000000000 K
b10000000000010000000000000000 t
b10000000000010000000000000000 w
b10000000000010000000000000000 $"
b10000000000010000000000000000 B"
b10000000000010000000000000000 J"
b10000000000010000000000000000 U"
b10000000000010000000000000000 ]"
b11 O
b11 u
b11 /"
b10100 N
b10100 s
b100 >
b100 x
b0 L
b0 ="
b0 m"
b100000000000000000011 G
b100000000000000000011 _
b100000000000000000011 ;"
b100000000000000000011 F"
b100000000000000000011 q"
b10001110100000110000000000000100 ?
b10001110100000110000000000000100 c
b10001110100000110000000000000100 j
b11 V"
b11 _"
b11 f"
b100000000000000000011 `
b10001110100000110000000000000100 e
b100000000000000000010 W
b100000000000000000111 5
b100000000000000000111 \
b100000000000000000111 ^
b100000000000000000011 4
b100000000000000000011 Y
b100000000000000000011 Z
b100000000000000000011 ]
b100000000000000000010 b
b1000000000000001 ?"
b100000000000000000010 V
b10000000000000000001000 2
b10000000000000000001000 !
b1000000000000001 K"
b1000000000000001 A"
b10 a"
b10 X"
b10 c"
b10 j"
1"
1<
#30
0"
0<
#35
b11 o
b11 Q
b11 p
b11 n"
b11 o"
b11 H
b11 ,"
b11 l"
0.
b11 ."
bz E
bz %"
bz )"
01
b11 =
b11 T"
b11 k"
b11 @
b11 +"
bx #"
bx ("
19
1Q"
b1111100000000000111 &"
1\"
1A
b100000000000000000100 B
b100000000000000000100 T
b100000000000000000100 x"
b11111111111111110000000000011100 ;
b11111111111111110000000000011100 !"
b11111111111111110000000000011100 ""
b11111111111111110000000000011100 *"
b11111111111111110000000000011100 S"
b100000000000000000100 y"
b100 R
b100 q
b100 1"
b0 )
b0 y
b0 ~
b100000000000000000100 F
b100000000000000000100 s"
b100000000000000000100 v"
b100 2"
b0 [
b0 {
b100000000000000000100 t"
b0 i
b11 n
0h
b100 O
b100 u
b100 /"
b11111111111111110000000000011100 J
b11111111111111110000000000011100 r
b11111111111111110000000000011100 }
b11 N
b11 s
b0 >
b0 x
b100 V"
b100 _"
b100 f"
b100000000000100000000000000 9"
b100000000000100000000000000 G"
b100000000000100000000000000 L"
b100000000000000000100 G
b100000000000000000100 _
b100000000000000000100 ;"
b100000000000000000100 F"
b100000000000000000100 q"
b10001100011001000000000000000000 ?
b10001100011001000000000000000000 c
b10001100011001000000000000000000 j
b100000000000100000000000000 H"
b100000000000000000100 `
b10001100011001000000000000000000 e
b100000000000100000000000000 E"
b100000000000000000011 W
b100000000000000000100 5
b100000000000000000100 \
b100000000000000000100 ^
b100000000000000000100 4
b100000000000000000100 Y
b100000000000000000100 Z
b100000000000000000100 ]
b100000000000000000011 b
b11 a"
b11 X"
b11 c"
b11 j"
b11111111111111110000000000011100 ~"
b10000000000010000000000000000 K
b10000000000010000000000000000 t
b10000000000010000000000000000 w
b10000000000010000000000000000 $"
b10000000000010000000000000000 B"
b10000000000010000000000000000 J"
b10000000000010000000000000000 U"
b10000000000010000000000000000 ]"
b100000000000000000011 V
b10000000000000000001100 2
b10000000000000000001100 !
1"
1<
#40
0"
0<
#45
b1000 E
b1000 %"
b1000 )"
b1000 #"
b1000 ("
1.
b100000000000010 &"
11
0A
09
0Q"
b100000000000000000101 B
b100000000000000000101 T
b100000000000000000101 x"
0\"
b10000000000010000000000001000 ;
b10000000000010000000000001000 !"
b10000000000010000000000001000 ""
b10000000000010000000000001000 *"
b10000000000010000000000001000 S"
b100000000000000000101 y"
b101 R
b101 q
b101 1"
b1000 )
b1000 y
b1000 ~
b100000000000000000101 F
b100000000000000000101 s"
b100000000000000000101 v"
b101 2"
b1000 [
b1000 {
b1000 o
b1000 Q
b1000 p
b1000 n"
b100000000000000000101 t"
b1000 i
b10100 n
1h
b101 O
b101 u
b101 /"
b10000000000010000000000000000 J
b10000000000010000000000000000 r
b10000000000010000000000000000 }
b10100 N
b10100 s
b1000 >
b1000 x
b1000 o"
b100000000000000000101 G
b100000000000000000101 _
b100000000000000000101 ;"
b100000000000000000101 F"
b100000000000000000101 q"
b10001110100001010000000000001000 ?
b10001110100001010000000000001000 c
b10001110100001010000000000001000 j
b100000000000100000000000000 9"
b100000000000100000000000000 G"
b100000000000100000000000000 L"
b101 V"
b101 _"
b101 f"
b1000 H
b1000 ,"
b1000 l"
b100000000000000000101 `
b10001110100001010000000000001000 e
b100000000000100000000000000 H"
b1000 ."
b100000000000000000100 W
b100000000000000001101 5
b100000000000000001101 \
b100000000000000001101 ^
b100000000000000000101 4
b100000000000000000101 Y
b100000000000000000101 Z
b100000000000000000101 ]
b100000000000000000100 b
b100000000000100000000000000 E"
bz =
bz T"
bz k"
b1000 @
b1000 +"
b100000000000000000100 V
b10000000000000000010000 2
b10000000000000000010000 !
b11 !#
b10000000000010000000000000000 K
b10000000000010000000000000000 t
b10000000000010000000000000000 w
b10000000000010000000000000000 $"
b10000000000010000000000000000 B"
b10000000000010000000000000000 J"
b10000000000010000000000000000 U"
b10000000000010000000000000000 ]"
b100 a"
b100 X"
b100 c"
b100 j"
1"
1<
#50
0"
0<
#55
b11011110101011011011111011101111 #"
b11011110101011011011111011101111 ("
b10 &"
b1011 o
b1011 Q
b1011 p
b1011 n"
b100000000000000000110 B
b100000000000000000110 T
b100000000000000000110 x"
b110 3"
b1011 o"
b1011 ;
b1011 !"
b1011 ""
b1011 *"
b1011 S"
b100000000000000000110 y"
16
b1011 H
b1011 ,"
b1011 l"
b11 z
bz E
bz %"
bz )"
bz @
bz +"
b110 R
b110 q
b110 1"
b11 )
b11 y
b11 ~
b100000000000000000110 F
b100000000000000000110 s"
b100000000000000000110 v"
b1011 -"
b0 ."
0'
0.
b0 2"
b11000000100000 [
b0 {
b100000000000000000110 t"
0/
0C
1l
b0 m
b100000 i
b101 n
0h
b110 I
b110 0"
b110 >"
b110 C"
b100 O
b100 u
b100 /"
b1000 J
b1000 r
b1000 }
b101 N
b101 s
b11000000100000 >
b11000000100000 x
b110 V"
b110 _"
b110 f"
b0 9"
b0 G"
b0 L"
b100000000000000000110 G
b100000000000000000110 _
b100000000000000000110 ;"
b100000000000000000110 F"
b100000000000000000110 q"
b101001000011000000100000 ?
b101001000011000000100000 c
b101001000011000000100000 j
b0 H"
b100000000000000000110 `
b101001000011000000100000 e
b0 E"
b100000000000000000101 W
b100000011000000100110 5
b100000011000000100110 \
b100000011000000100110 ^
b100000000000000000110 4
b100000000000000000110 Y
b100000000000000000110 Z
b100000000000000000110 ]
b100000000000000000101 b
b101 a"
b101 X"
b101 c"
b101 j"
b1000 "#
b11 K
b11 t
b11 w
b11 $"
b11 B"
b11 J"
b11 U"
b11 ]"
b100000000000000000101 V
b10000000000000000010100 2
b10000000000000000010100 !
1"
1<
#60
0"
0<
