CS 233/Lab3/alu1.vcd
$date
	Fri Sep 15 15:44:28 2017
$end
$version
	Icarus Verilog
$end
$timescale
	1s
$end
$scope module alu1_test $end
$var wire 1 ! carryout_out $end
$var wire 1 " out_out $end
$var reg 1 # A_in $end
$var reg 1 $ B_in $end
$var reg 1 % carryin_in $end
$var reg 3 & control [2:0] $end
$scope module l1 $end
$var wire 1 ' A $end
$var wire 1 ( B $end
$var wire 1 ) carryin $end
$var wire 1 ! carryout $end
$var wire 3 * control [2:0] $end
$var wire 1 " out $end
$var wire 1 + w1 $end
$var wire 1 , w2 $end
$var wire 1 - w3 $end
$var wire 1 . w4 $end
$var wire 1 / w5 $end
$var wire 1 0 w6 $end
$var wire 1 1 w7 $end
$scope module m1 $end
$var wire 1 + A $end
$var wire 1 , B $end
$var wire 1 - C $end
$var wire 1 . D $end
$var wire 2 2 control [1:0] $end
$var wire 1 / out $end
$var wire 1 3 w1 $end
$var wire 1 4 w2 $end
$scope module m1 $end
$var wire 1 + A $end
$var wire 1 , B $end
$var wire 1 5 control $end
$var wire 1 6 not_control $end
$var wire 1 3 out $end
$var wire 1 7 wA $end
$var wire 1 8 wB $end
$upscope $end
$scope module m2 $end
$var wire 1 - A $end
$var wire 1 . B $end
$var wire 1 9 control $end
$var wire 1 : not_control $end
$var wire 1 4 out $end
$var wire 1 ; wA $end
$var wire 1 < wB $end
$upscope $end
$scope module m3 $end
$var wire 1 3 A $end
$var wire 1 4 B $end
$var wire 1 = control $end
$var wire 1 > not_control $end
$var wire 1 / out $end
$var wire 1 ? wA $end
$var wire 1 @ wB $end
$upscope $end
$upscope $end
$scope module f1 $end
$var wire 1 ' a $end
$var wire 1 1 b $end
$var wire 1 ) cin $end
$var wire 1 ! cout $end
$var wire 1 A partial_c1 $end
$var wire 1 B partial_c2 $end
$var wire 1 C partial_s $end
$var wire 1 0 sum $end
$upscope $end
$scope module m2 $end
$var wire 1 0 A $end
$var wire 1 / B $end
$var wire 1 D control $end
$var wire 1 E not_control $end
$var wire 1 " out $end
$var wire 1 F wA $end
$var wire 1 G wB $end
$upscope $end
$upscope $end
$upscope $end
$enddefinitions $end
#0
$dumpvars
0G
0F
1E
0D
0C
0B
0A
0@
0?
1>
0=
0<
1;
1:
09
08
07
16
05
14
03
b0 2
01
00
0/
0.
1-
0,
0+
b0 *
0)
0(
0'
b0 &
0%
0$
0#
0"
0!
$end
#1
1"
04
1F
0;
10
1,
0-
1.
1C
1#
1'
#2
11
0#
0'
1$
1(
#3
1/
1?
13
1"
17
1F
1!
1+
0.
0C
1A
10
0B
1#
1'
1%
1)
#4
0/
0?
03
14
0!
07
1;
0A
0+
0,
1-
01
0#
0'
0$
0(
#5
0"
04
0F
1!
0;
00
1B
1,
0-
1.
1C
1#
1'
#6
1"
1F
0!
11
10
0B
0#
0'
1$
1(
0%
0)
#7
1/
1?
0"
13
0F
17
00
1!
1+
0.
0C
1A
1#
1'
#8
0/
1"
0?
1F
03
04
06
0:
10
0!
07
0;
15
19
1C
0A
0+
0,
1-
b1 2
0#
0'
0$
0(
b1 &
b1 *
#9
1/
1?
13
14
1"
18
1<
1F
1!
1,
0-
1.
0C
1A
10
0B
1#
1'
1%
1)
#10
0!
0A
01
0#
0'
1$
1(
#11
0"
04
0F
1!
0<
00
1B
1+
0.
1C
1#
1'
#12
0/
0?
03
1"
08
1F
0!
0+
0,
1-
11
10
0B
0#
0'
0$
0(
0%
0)
#13
1/
1?
0"
13
14
0F
18
1<
00
1!
1,
0-
1.
0C
1A
1#
1'
#14
0!
0A
01
0#
0'
1$
1(
#15
04
1!
0"
0<
1B
0F
1+
0.
1C
00
1#
1'
1%
1)
#16
1@
14
1/
1"
1;
0?
1F
0!
03
16
1:
0>
10
0B
08
05
09
1=
0C
0+
0,
1-
b10 2
0#
0'
0$
0(
b10 &
b10 *
#17
0/
0@
0"
04
0F
1!
0;
00
1B
1,
0-
1.
1C
1#
1'
#18
1"
1F
0!
11
10
0B
0#
0'
1$
1(
0%
0)
#19
0"
13
0F
17
00
1!
1+
0.
0C
1A
1#
1'
#20
1/
1@
03
14
0!
07
1;
0A
0+
0,
1-
01
0#
0'
0$
0(
#21
0/
0@
04
1!
0"
0;
1B
0F
1,
0-
1.
1C
00
1#
1'
1%
1)
#22
11
0#
0'
1$
1(
#23
1"
13
1F
17
10
0B
1+
0.
0C
1A
1#
1'
#24
0/
0@
03
04
1"
06
0:
0!
07
0;
1F
15
19
1C
0A
0+
0,
1-
10
b11 2
0#
0'
0$
0(
0%
0)
b11 &
b11 *
#25
1/
1@
0"
13
14
0F
18
1<
00
1!
1,
0-
1.
0C
1A
1#
1'
#26
0!
0A
01
0#
0'
1$
1(
#27
0/
0@
04
1!
0"
0<
1B
0F
1+
0.
1C
00
1#
1'
1%
1)
#28
03
08
0+
0,
1-
11
0#
0'
0$
0(
#29
1/
1@
1"
13
14
1F
18
1<
10
0B
1,
0-
1.
0C
1A
1#
1'
#30
0"
0!
0F
0A
01
00
0#
0'
1$
1(
0%
0)
#31
0/
0@
1"
04
1F
0<
10
1+
0.
1C
1#
1'
#32
14
1;
0"
03
16
1:
1>
0F
00
08
05
09
0=
0E
0C
0+
0,
1-
b0 2
1D
0#
0'
0$
0(
b100 &
b100 *
#33
04
1!
0;
1B
1,
0-
1.
1C
00
1#
1'
1%
1)
#34
11
0#
0'
1$
1(
#35
1"
1G
1/
1?
13
17
10
0B
1+
0.
0C
1A
1#
1'
#36
0"
0G
0/
0?
03
14
0!
07
1;
0A
0+
0,
1-
01
00
0#
0'
0$
0(
0%
0)
#37
04
0;
10
1,
0-
1.
1C
1#
1'
#38
11
0#
0'
1$
1(
#39
1"
1G
1/
1?
13
17
1!
1+
0.
0C
1A
10
0B
1#
1'
1%
1)
#40
0"
0G
0/
0?
03
04
06
0:
00
1B
1!
07
0;
15
19
1C
0A
0+
0,
1-
b1 2
0#
0'
0$
0(
b101 &
b101 *
#41
1"
1G
1/
1?
13
14
18
1<
10
0B
1,
0-
1.
0C
1A
1#
1'
#42
0!
0A
01
00
0#
0'
1$
1(
0%
0)
#43
04
0<
10
1+
0.
1C
1#
1'
#44
0"
0G
0/
0?
03
08
0+
0,
1-
11
0#
0'
0$
0(
#45
1"
1G
1/
1?
13
14
18
1<
1!
1,
0-
1.
0C
1A
10
0B
1#
1'
1%
1)
#46
0!
0A
01
0#
0'
1$
1(
#47
04
1!
0<
00
1B
1+
0.
1C
1#
1'
#48
1"
1@
1G
14
1/
1;
0?
03
16
1:
0>
08
0!
05
09
1=
0C
0+
0,
1-
00
0B
b10 2
0#
0'
0$
0(
0%
0)
b110 &
b110 *
#49
0"
0G
0/
0@
04
0;
10
1,
0-
1.
1C
1#
1'
#50
11
0#
0'
1$
1(
#51
13
17
1!
1+
0.
0C
1A
10
0B
1#
1'
1%
1)
#52
1"
1G
1/
1@
03
14
0!
07
1;
0A
0+
0,
1-
01
0#
0'
0$
0(
#53
0"
0G
0/
0@
04
1!
0;
00
1B
1,
0-
1.
1C
1#
1'
#54
0!
11
10
0B
0#
0'
1$
1(
0%
0)
#55
13
17
00
1!
1+
0.
0C
1A
1#
1'
#56
0"
0G
0/
0@
03
04
06
0:
10
0!
07
0;
15
19
1C
0A
0+
0,
1-
b11 2
0#
0'
0$
0(
b111 &
b111 *
#57
1"
1G
1/
1@
13
14
18
1<
1!
1,
0-
1.
0C
1A
10
0B
1#
1'
1%
1)
#58
0!
0A
01
0#
0'
1$
1(
#59
0"
0G
0/
0@
04
1!
0<
00
1B
1+
0.
1C
1#
1'
#60
03
08
0!
0+
0,
1-
11
10
0B
0#
0'
0$
0(
0%
0)
#61
1"
1G
1/
1@
13
14
18
1<
00
1!
1,
0-
1.
0C
1A
1#
1'
#62
0!
0A
01
0#
0'
1$
1(
#63
0"
0G
0/
0@
04
1!
0<
1B
1+
0.
1C
00
1#
1'
1%
1)
#64
03
08
0+
0,
1-
11
0#
0'
0$
0(
